[{'timestamp_tr_comp':
'2015-04-06T00:01:40',
'dst_hostname':
'golias100.farm.particle.cz',
'timestamp_tr_st':
'2015-04-06T00:01:37',
'transfer_time':
3,
'f_size':
235564162,
'src_hostname':
'eosatlassftp.cern.ch',
'endpnt':
'fts3.cern.ch',
't_channel':
'gsiftp://eosatlassftp.cern.ch__srm://golias100.farm.particle.cz'},
{'timestamp_tr_comp':
'2015-04-06T00:01:41',
'dst_hostname':
'grid-srm.rzg.mpg.de',
'timestamp_tr_st':
'2015-04-06T00:01:39',
'transfer_time':
2,
'f_size':
1048576,
'src_hostname':
'srmatlas.pic.es',
'endpnt':
'fts3.cern.ch',
't_channel':
'srm://srmatlas.pic.es__srm://grid-srm.rzg.mpg.de'},
{'timestamp_tr_comp':
'2015-04-06T00:01:50',
'dst_hostname':
'storm-fe.cr.cnaf.infn.it',
'timestamp_tr_st':
'2015-04-06T00:01:49',
'transfer_time':
1,
'f_size':
1045278,
'src_hostname':
't2cmcondor.mi.infn.it',
'endpnt':
'fts3.cern.ch',
't_channel':
'srm://t2cmcondor.mi.infn.it__srm://storm-fe.cr.cnaf.infn.it'}]
